Author,votes
Ursula K. Le Guin,58
N.K. Jemisin,57
Lois McMaster Bujold,52
J.K. Rowling,49
Robin Hobb,48
Naomi Novik,46
Becky Chambers,36
Katherine Addison,34
Jacqueline Carey,31
Martha Wells,30
Susanna Clarke,28
Patricia McKillip,26
Katherine Arden,24
Octavia Butler,23
Tamora Pierce,21
Ann Leckie,21
Janny Wurts,19
Leigh Bardugo,19
Claire North,19
Helene Wecker,17
Madeline Miller,17
Maggie Stiefvater,16
Robin McKinley,16
Rachel Aaron,15
Catherynne Valente,15
Diana Wynne Jones,14
Sherwood Smith,13
Anne Bishop,13
Seanan McGuire,13
Carol Berg,12
Anne McCaffrey,12
R.F. Kuang,12
Patricia Briggs,11
Kate Elliott,11
Nnedi Okorafor,11
Connie Willis,10
Fonda Lee,10
Sofia Samatar,10
Mary Robinette Kowal,10
Elizabeth Moon,10
Kameron Hurley,10
Juliet Marillier,10
V.E. Schwab,10
C.S. Friedman,10
SA Chakraborty,10
Elizabeth Bear,9
Anna Smith Spark,9
Rosemary Kirstein,8
Megan Whalen Turner,8
Erin Morgenstern,8
Jen Williams,8
Devin Madson,8
Courtney Schafer,8
Mercedes Lackey,7
Margaret Atwood,7
Holly Black,7
Laini Taylor,7
C.J. Cherryh,7
Barbara Hambly,6
Susan Cooper,6
Grace Draven,6
Mary Shelley,6
Ellen Kushner,6
K.S. Villoso,6
Tanith Lee,6
Rachel Hartman,5
Ada Palmer,5
Marie Brennan,5
Mira Grant,5
Diana Gabaldon,5
Mary Gentle,5
Samantha Shannon,5
Sam Hawke,5
Le Guinn,5
Madeleine L'Engle,5
